{
  "lesson_01": {
    "letters": [
      "e",
      "s",
      "t"
    ],
    "new_words": 31,
    "words_total": 31
  },
  "lesson_02": {
    "new_letter": "a",
    "old_letters": [
      "e",
      "s",
      "t"
    ],
    "new_words": 55,
    "words_total": 86
  },
  "lesson_03": {
    "new_letter": "r",
    "old_letters": [
      "a",
      "e",
      "s",
      "t"
    ],
    "new_words": 131,
    "words_total": 217
  },
  "lesson_04": {
    "new_letter": "b",
    "old_letters": [
      "a",
      "e",
      "r",
      "s",
      "t"
    ],
    "new_words": 132,
    "words_total": 349
  },
  "lesson_05": {
    "new_letter": "g",
    "old_letters": [
      "a",
      "b",
      "e",
      "r",
      "s",
      "t"
    ],
    "new_words": 128,
    "words_total": 477
  },
  "lesson_06": {
    "new_letter": "y",
    "old_letters": [
      "a",
      "b",
      "e",
      "g",
      "r",
      "s",
      "t"
    ],
    "new_words": 141,
    "words_total": 618
  },
  "lesson_07": {
    "new_letter": "v",
    "old_letters": [
      "a",
      "b",
      "e",
      "g",
      "r",
      "s",
      "t",
      "y"
    ],
    "new_words": 128,
    "words_total": 746
  },
  "lesson_08": {
    "new_letter": "w",
    "old_letters": [
      "a",
      "b",
      "e",
      "g",
      "r",
      "s",
      "t",
      "v",
      "y"
    ],
    "new_words": 144,
    "words_total": 890
  },
  "lesson_09": {
    "new_letter": "f",
    "old_letters": [
      "a",
      "b",
      "e",
      "g",
      "r",
      "s",
      "t",
      "v",
      "w",
      "y"
    ],
    "new_words": 149,
    "words_total": 1039
  },
  "lesson_10": {
    "new_letter": "k",
    "old_letters": [
      "a",
      "b",
      "e",
      "f",
      "g",
      "r",
      "s",
      "t",
      "v",
      "w",
      "y"
    ],
    "new_words": 152,
    "words_total": 1191
  },
  "lesson_11": {
    "new_letter": "h",
    "old_letters": [
      "a",
      "b",
      "e",
      "f",
      "g",
      "k",
      "r",
      "s",
      "t",
      "v",
      "w",
      "y"
    ],
    "new_words": 313,
    "words_total": 1504
  },
  "lesson_12": {
    "new_letter": "p",
    "old_letters": [
      "a",
      "b",
      "e",
      "f",
      "g",
      "h",
      "k",
      "r",
      "s",
      "t",
      "v",
      "w",
      "y"
    ],
    "new_words": 433,
    "words_total": 1937
  },
  "lesson_13": {
    "new_letter": "m",
    "old_letters": [
      "a",
      "b",
      "e",
      "f",
      "g",
      "h",
      "k",
      "p",
      "r",
      "s",
      "t",
      "v",
      "w",
      "y"
    ],
    "new_words": 444,
    "words_total": 2381
  },
  "lesson_14": {
    "new_letter": "c",
    "old_letters": [
      "a",
      "b",
      "e",
      "f",
      "g",
      "h",
      "k",
      "m",
      "p",
      "r",
      "s",
      "t",
      "v",
      "w",
      "y"
    ],
    "new_words": 608,
    "words_total": 2989
  },
  "lesson_15": {
    "new_letter": "u",
    "old_letters": [
      "a",
      "b",
      "c",
      "e",
      "f",
      "g",
      "h",
      "k",
      "m",
      "p",
      "r",
      "s",
      "t",
      "v",
      "w",
      "y"
    ],
    "new_words": 986,
    "words_total": 3975
  },
  "lesson_16": {
    "new_letter": "d",
    "old_letters": [
      "a",
      "b",
      "c",
      "e",
      "f",
      "g",
      "h",
      "k",
      "m",
      "p",
      "r",
      "s",
      "t",
      "u",
      "v",
      "w",
      "y"
    ],
    "new_words": 1229,
    "words_total": 5204
  },
  "lesson_17": {
    "new_letter": "x",
    "old_letters": [
      "a",
      "b",
      "c",
      "d",
      "e",
      "f",
      "g",
      "h",
      "k",
      "m",
      "p",
      "r",
      "s",
      "t",
      "u",
      "v",
      "w",
      "y"
    ],
    "new_words": 120,
    "words_total": 5324
  },
  "lesson_18": {
    "new_letter": "z",
    "old_letters": [
      "a",
      "b",
      "c",
      "d",
      "e",
      "f",
      "g",
      "h",
      "k",
      "m",
      "p",
      "r",
      "s",
      "t",
      "u",
      "v",
      "w",
      "x",
      "y"
    ],
    "new_words": 144,
    "words_total": 5468
  },
  "lesson_19": {
    "new_letter": "j",
    "old_letters": [
      "a",
      "b",
      "c",
      "d",
      "e",
      "f",
      "g",
      "h",
      "k",
      "m",
      "p",
      "r",
      "s",
      "t",
      "u",
      "v",
      "w",
      "x",
      "y",
      "z"
    ],
    "new_words": 150,
    "words_total": 5618
  },
  "lesson_20": {
    "new_letter": "l",
    "old_letters": [
      "a",
      "b",
      "c",
      "d",
      "e",
      "f",
      "g",
      "h",
      "j",
      "k",
      "m",
      "p",
      "r",
      "s",
      "t",
      "u",
      "v",
      "w",
      "x",
      "y",
      "z"
    ],
    "new_words": 2184,
    "words_total": 7802
  },
  "lesson_21": {
    "new_letter": "n",
    "old_letters": [
      "a",
      "b",
      "c",
      "d",
      "e",
      "f",
      "g",
      "h",
      "j",
      "k",
      "l",
      "m",
      "p",
      "r",
      "s",
      "t",
      "u",
      "v",
      "w",
      "x",
      "y",
      "z"
    ],
    "new_words": 2155,
    "words_total": 9957
  },
  "lesson_22": {
    "new_letter": "o",
    "old_letters": [
      "a",
      "b",
      "c",
      "d",
      "e",
      "f",
      "g",
      "h",
      "j",
      "k",
      "l",
      "m",
      "n",
      "p",
      "r",
      "s",
      "t",
      "u",
      "v",
      "w",
      "x",
      "y",
      "z"
    ],
    "new_words": 5142,
    "words_total": 15099
  },
  "lesson_23": {
    "new_letter": "q",
    "old_letters": [
      "a",
      "b",
      "c",
      "d",
      "e",
      "f",
      "g",
      "h",
      "j",
      "k",
      "l",
      "m",
      "n",
      "o",
      "p",
      "r",
      "s",
      "t",
      "u",
      "v",
      "w",
      "x",
      "y",
      "z"
    ],
    "new_words": 127,
    "words_total": 15226
  },
  "lesson_24": {
    "new_letter": "i",
    "old_letters": [
      "a",
      "b",
      "c",
      "d",
      "e",
      "f",
      "g",
      "h",
      "j",
      "k",
      "l",
      "m",
      "n",
      "o",
      "p",
      "q",
      "r",
      "s",
      "t",
      "u",
      "v",
      "w",
      "x",
      "y",
      "z"
    ],
    "new_words": 6401,
    "words_total": 21627
  }
}