starts     
ra     
erase     
star     
ear     
rt     
tar     
saar     
sere     
terr     
rates     
stars     
teaser     
street     
rate     
re     
reset     
tatar     
taster     
starr     
stater     
rs     
tetras     
eraser     
tartar     
taters     
rasta     
start     
rarest     
tatter     
taser     
errata     
retest     
rares     
er     
rats     
rest     
tarts     
sears     
stares     
art     
ears     
arr     
reese     
arras     
serest     
rte     
tress     
arrest     
arts     
