abates     
aba     
braes     
brats     
better     
ebb     
abe     
bare     
beat     
berets     
bess     
berra     
arab     
sba     
baste     
bets     
barr     
baas     
ba     
babe     
br     
rabat     
bat     
bear     
beset     
abbas     
beret     
barbra     
brae     
serbs     
sabers     
bets     
besets     
bast     
tba     
bates     
bases     
rebate     
babes     
abets     
be     
beats     
bee     
abbr     
barber     
bests     
tb     
abbe     
barer     
bears     
