dmz     
mazama     
azure     
abuzz     
zapped     
zagreb     
fez     
craze     
crazes     
zebras     
grazer     
freeze     
futzes     
suzy     
zesty     
crazed     
putz     
faze     
fazed     
zetas     
haze     
az     
eczema     
zebra     
gauze     
azt     
razed     
zest     
buzz     
bazaar     
fuzz     
hertz     
kazakh     
brazes     
zeke     
czech     
hazmat     
khazar     
khz     
hz     
zara     
suarez     
warez     
hazers     
buzzed     
mhz     
gauzy     
zr     
huzzah     
maze     
