quarks     
qc     
quayle     
mosque     
quoth     
square     
qwerty     
quote     
squats     
qed     
toque     
quezon     
qantas     
squaw     
quash     
quasar     
qt     
quays     
quack     
plaque     
squash     
quakes     
qm     
mysql     
quaffs     
colloq     
opaque     
quo     
quanta     
quell     
quotas     
barque     
quells     
queasy     
tuque     
squeal     
faqs     
pequot     
faq     
manque     
equal     
equals     
tuques     
aquas     
qatar     
qb     
queued     
hq     
braque     
bbq     
