garvey     
gravy     
graver     
veer     
vba     
vagary     
grave     
vesta     
avery     
saver     
rave     
graves     
verb     
reva     
vase     
verge     
verges     
eve     
vasts     
vests     
verbs     
verses     
reeves     
var     
agave     
severe     
rev     
bevvy     
savers     
vt     
aver     
sever     
raver     
gave     
eaves     
atv     
evert     
vet     
server     
veg     
tvs     
vassar     
rsv     
revere     
eves     
stave     
veges     
saves     
savvy     
rvs     
