easily     
demist     
irk     
kipped     
medic     
brides     
skier     
fabric     
outhit     
wive     
which     
clime     
fifth     
verity     
airbag     
marisa     
clive     
navies     
grill     
eddie     
memoir     
lila     
fruity     
given     
air     
spirit     
scrimp     
dative     
impart     
sixth     
skin     
smithy     
fafnir     
pokier     
hewing     
chief     
hdmi     
oneida     
coils     
units     
linage     
fiends     
redid     
lucien     
newbie     
griefs     
devin     
echoic     
faxing     
foists     
