ace     
caste     
crapes     
cast     
amerce     
ac     
racer     
arch     
scars     
specks     
cachet     
sketch     
masc     
mecca     
sc     
bach     
kvetch     
bryce     
secs     
cask     
mach     
peach     
caw     
carp     
caffs     
cay     
scatty     
kc     
pack     
scrape     
aback     
capra     
recce     
caws     
chest     
carey     
champ     
creeps     
cather     
carers     
chars     
vacs     
secy     
mccray     
carats     
scarab     
hatch     
achy     
casaba     
cert     
