tamra     
marva     
khmer     
tamer     
stamps     
perms     
warmth     
martyr     
ashram     
rhyme     
marsh     
teem     
meres     
kramer     
matey     
gamest     
remaps     
mage     
gem     
mk     
karma     
maters     
swampy     
abrams     
hmm     
tams     
smarmy     
tamest     
aymara     
graham     
mayra     
mars     
mask     
army     
sesame     
sammy     
same     
mfrs     
ahem     
masers     
mtge     
vamp     
pygmy     
mag     
system     
hammer     
smart     
tampa     
hems     
gamer     
