wazoo     
pork     
pooch     
froth     
oe     
devon     
ovule     
costed     
bolder     
bowleg     
outer     
korea     
loured     
cannot     
hotted     
spook     
down     
epoch     
poll     
sudoku     
somoza     
swore     
coaxer     
offers     
lovey     
pedro     
gorky     
hetero     
cobber     
tudors     
goody     
soaked     
lorena     
locket     
encode     
chore     
dotard     
hormuz     
choked     
unstop     
sosa     
orgy     
sough     
opuses     
costco     
gloomy     
lodz     
elopes     
doyens     
logged     
