gar     
bergs     
geese     
segre     
gere     
greta     
gas     
sagest     
rage     
egret     
gets     
age     
gags     
regret     
garter     
get     
ratbag     
grates     
greer     
garb     
garage     
rages     
bag     
gatt     
tags     
agrees     
sarges     
egress     
tagger     
sags     
grebe     
ga     
gregg     
grater     
gag     
tag     
gab     
gerber     
berger     
ragbag     
brags     
seeger     
grease     
gsa     
ag     
sgt     
gabs     
beggar     
eggs     
reg     
