abby     
by     
baggy     
artsy     
yest     
geyser     
tarty     
says     
tyree     
array     
essay     
bay     
tyre     
yet     
bayes     
trey     
tryst     
bytes     
eye     
reyes     
ayers     
grassy     
yes     
easy     
garry     
gatsby     
sayers     
yeggs     
trey     
ttys     
rays     
bey     
yeasts     
ry     
treaty     
ray     
astray     
ty     
testy     
treys     
yt     
sassy     
trays     
aye     
grayer     
ya     
abbey     
gay     
assay     
tasty     
