egrets     
garret     
reggae     
grate     
egg     
geese     
age     
gaea     
gaga     
sage     
ragas     
ag     
seeger     
gb     
begat     
gag     
gars     
bag     
gates     
bragg     
gasser     
egret     
raga     
begets     
gee     
target     
stags     
berg     
ragtag     
rages     
teabag     
agra     
beg     
tag     
sages     
get     
eeg     
sega     
gag     
greta     
agrees     
brags     
sarge     
grass     
ergs     
greet     
gatt     
gags     
garb     
gas     
