sasses     
teats     
ssa     
tease     
tessa     
tass     
tats     
asset     
east     
assess     
ta     
teat     
sea     
sase     
state     
eta     
sates     
tate     
teases     
etas     
as     
asses     
tastes     
ass     
sat     
etta     
seats     
ate     
teases     
sass     
estate     
asst     
tea     
eats     
sa     
stat     
assets     
stats     
taste     
ea     
estate     
sta     
states     
aa     
sate     
attest     
ease     
aaa     
seat     
teas     
