fests     
freya     
fewer     
fags     
safe     
frats     
ferry     
safer     
waft     
fevers     
fave     
fever     
fetes     
beefy     
fryers     
frag     
safest     
fesses     
farts     
safety     
fwy     
ref     
wefts     
fate     
vfw     
faye     
fete     
after     
fayer     
fart     
fates     
feast     
gaff     
fear     
afters     
fats     
fat     
refers     
wafers     
eff     
rarefy     
strafe     
fays     
effete     
feats     
feet     
fester     
fasts     
ferret     
fry     
