eve     
avert     
reeve     
severs     
grave     
beeves     
vegges     
vary     
tv     
staves     
eave     
very     
starve     
bevy     
vg     
revers     
yves     
garvey     
verges     
vga     
yvette     
vargas     
severe     
eves     
vat     
verger     
breves     
tva     
verses     
vast     
abbrev     
vega     
vba     
vesta     
sevres     
vest     
beaver     
tevet     
gave     
vaster     
ravage     
revere     
evert     
vert     
reva     
brave     
savers     
every     
rvs     
vet     
