taxes     
waxes     
pyxes     
saxes     
vexes     
hexes     
durex     
vex     
tampax     
texted     
bx     
exurb     
xe     
tx     
wessex     
xterm     
faux     
fedex     
vaxes     
exert     
xref     
except     
extras     
dexter     
pbx     
pyx     
maxes     
excuse     
hexed     
apex     
exuded     
rx     
tex     
sussex     
sex     
axum     
exempt     
taxer     
exudes     
apexes     
exact     
texes     
tuxes     
tux     
bayeux     
text     
exam     
xmas     
xes     
exams     
