queens     
quaky     
squads     
quartz     
quot     
quo     
quacks     
quota     
qa     
equals     
squall     
quarks     
quaoar     
quench     
quest     
quotas     
queues     
quote     
quasar     
quash     
basque     
compaq     
queen     
qumran     
qt     
quot     
pdq     
quebec     
quests     
qom     
squeak     
squat     
quaked     
quays     
hdqrs     
mysql     
quarto     
torque     
quells     
freq     
qc     
quoth     
squaw     
ques     
quayle     
masque     
quanta     
quezon     
manque     
queers     
