seesaw     
wars     
west     
weaver     
segway     
raw     
waves     
wry     
wearer     
waters     
yews     
swear     
away     
wryer     
warty     
byways     
tweets     
wyatt     
ewe     
brewer     
swags     
weary     
www     
stew     
stews     
weber     
wy     
wet     
grew     
trews     
rawest     
wrest     
strew     
sweets     
weer     
rawer     
ww     
wa     
aware     
swab     
sweat     
wees     
wv     
ewers     
twee     
swats     
awes     
watts     
sewers     
aw     
