scheat     
scarfs     
rc     
cathy     
rcpt     
beach     
charge     
carter     
racy     
search     
thwack     
scream     
escape     
cagey     
cast     
rack     
carps     
chat     
car     
chevy     
chart     
charms     
cheap     
raceme     
racers     
carve     
frack     
crash     
gcc     
capes     
patch     
wc     
capet     
crays     
tacks     
tracey     
space     
cert     
whacks     
crabbe     
hacker     
cat     
kfc     
pacey     
peck     
pack     
creams     
cf     
scram     
ache     
