grew     
sweat     
brewer     
sweats     
rwy     
tweets     
wees     
sweaty     
wage     
strews     
strew     
way     
wave     
wearer     
watts     
wages     
swabs     
sews     
warsaw     
wary     
byway     
wt     
wats     
www     
ware     
wastes     
wagers     
weaver     
wetter     
swear     
swab     
weber     
byways     
web     
weary     
yaws     
warts     
strews     
aws     
ssw     
stew     
wv     
ways     
sways     
stews     
ewes     
ww     
weaves     
brew     
awry     
