ea     
eta     
tessa     
sta     
tea     
tass     
as     
aa     
asset     
teas     
states     
sate     
tats     
attest     
tastes     
stats     
sass     
etas     
aaa     
sea     
sase     
seat     
taste     
asst     
state     
ats     
ate     
teases     
sa     
at     
eat     
tat     
easts     
etta     
sates     
east     
seas     
ssa     
estate     
sat     
ease     
eases     
tate     
assets     
easts     
stat     
ass     
teases     
assess     
tease     
