jams     
jazz     
judder     
jar     
jazzes     
jumps     
jut     
jude     
jaws     
jacked     
jammed     
jeer     
jeremy     
jujube     
jacked     
jaw     
jumped     
jute     
jerky     
jagger     
jasper     
jested     
abject     
ejects     
ramjet     
jared     
jr     
jaycee     
jagged     
adjust     
reject     
jump     
deject     
hajjes     
abjure     
ajax     
jumpy     
jfk     
haj     
jcs     
japura     
jazzed     
judged     
jewry     
jeered     
jake     
jerks     
jags     
sj     
jetsam     
