bluesy     
bradly     
muscle     
calm     
place     
lg     
yell     
luvs     
lawyer     
ample     
bezel     
league     
slurs     
damply     
lymph     
places     
flay     
sleeks     
lust     
justly     
lathe     
alkyd     
smelt     
fleshy     
slumps     
termly     
rustle     
atlas     
tall     
expels     
yelled     
fluff     
uvulas     
glaze     
methyl     
blamer     
luster     
fell     
alar     
merle     
plash     
whelps     
duple     
hubble     
wheels     
lyceum     
aleuts     
vales     
mulcts     
slaw     
