surges     
auks     
thump     
cute     
umbra     
utter     
rucks     
cactus     
ruffs     
cuff     
fumy     
utah     
puts     
frau     
curses     
murray     
bursts     
hugh     
seurat     
hurrah     
frump     
fuck     
muggy     
puree     
chuck     
guppy     
pusey     
tutu     
thur     
yum     
surety     
burgs     
abuse     
hums     
bugs     
usmc     
such     
suva     
hus     
summer     
ague     
chutes     
turkey     
cumber     
bushes     
curse     
musher     
whups     
rums     
shrubs     
