dunk     
names     
venn     
manses     
meant     
nerds     
tanner     
wane     
shawna     
barman     
tran     
np     
napalm     
ranks     
nectar     
nantes     
encase     
wanks     
nlrb     
hen     
abner     
manuel     
manual     
cranky     
edmund     
sent     
fawned     
canape     
wrung     
naps     
nappy     
newel     
balkan     
sands     
cullen     
franc     
tauten     
shauna     
angled     
yawn     
gnat     
warned     
event     
ernest     
rune     
weened     
center     
clanks     
janna     
nub     
