atm     
mes     
mathew     
mrs     
tm     
tameka     
farm     
matt     
memes     
tram     
mast     
smart     
wm     
berms     
gm     
mete     
gamy     
meres     
magma     
gamay     
theme     
mgm     
assam     
gram     
shams     
myrrh     
yam     
seems     
maya     
rhyme     
fermat     
gmt     
ramsey     
meets     
merest     
amber     
ymha     
term     
tamps     
ramsay     
them     
amt     
karma     
megs     
team     
tampa     
meth     
erma     
masses     
mpeg     
