stabs     
abe     
beater     
bsa     
bastes     
stab     
bears     
baa     
braes     
brest     
bets     
barb     
abase     
abet     
sabers     
brass     
bras     
rabat     
bass     
barres     
bart     
beast     
breast     
sabers     
arabs     
brats     
babes     
tab     
bares     
bret     
rb     
brett     
barber     
best     
rebate     
rabbet     
beebe     
ebb     
beets     
saber     
beet     
ab     
bart     
barre     
beset     
brr     
tbs     
bbb     
bar     
bs     
