braces     
search     
breech     
cram     
cm     
crepes     
chap     
aches     
aces     
camry     
crept     
casey     
fact     
cashes     
checks     
paces     
hacker     
betcha     
scams     
cachet     
caber     
masc     
caws     
cay     
raceme     
screw     
bract     
casket     
chaps     
races     
care     
stacks     
reach     
skycap     
creme     
tracts     
backer     
wac     
crash     
crees     
chafe     
tarmac     
wack     
crabs     
keck     
capra     
swatch     
ce     
wacks     
caph     
