aqua     
quad     
qts     
toque     
quartz     
squads     
quaff     
quaky     
braque     
quays     
squad     
qumran     
queued     
nasdaq     
tuque     
marque     
ghq     
quotas     
qm     
quaoar     
sequel     
quests     
qty     
quark     
colloq     
quango     
hq     
queers     
aquas     
bbq     
mysql     
squaws     
qua     
qom     
squall     
quells     
quote     
quot     
quoted     
ques     
torque     
basque     
qc     
quezon     
sql     
manque     
freq     
qatar     
qed     
query     
