muzak     
grazed     
scuzzy     
dz     
crazy     
razes     
wheeze     
fazed     
adze     
crazed     
breezy     
huzzah     
gauze     
futzes     
amazed     
suzy     
zzz     
putz     
azures     
mazes     
czechs     
zr     
amaze     
pzazz     
mhz     
fuzzes     
bazaar     
zest     
hazmat     
suarez     
furze     
eczema     
mazama     
hertz     
zara     
zappy     
fezzes     
az     
buzz     
hazer     
putzes     
raze     
spaatz     
razz     
mazda     
azure     
fuzzed     
gaze     
fazes     
gazed     
