revert     
vasts     
tva     
revere     
avatar     
gyve     
ave     
eaves     
verses     
verse     
beaver     
gravy     
every     
bevvy     
vagary     
va     
vases     
avert     
garvey     
vs     
rsv     
revs     
graver     
varese     
veg     
vargas     
starve     
veges     
raver     
avast     
evert     
vets     
vega     
veer     
avert     
av     
breve     
graves     
agave     
vast     
versa     
gyves     
gave     
breves     
severs     
rvs     
reva     
vassar     
ravers     
savage     
