savvy     
vets     
reeves     
yves     
vaster     
abbrev     
veges     
reverb     
veers     
verses     
rave     
savage     
vase     
verb     
beeves     
saves     
vast     
revert     
vagary     
gyve     
vat     
beaver     
eave     
brevet     
gravy     
eva     
starve     
breves     
varese     
sevres     
revers     
verges     
averse     
reva     
vars     
avers     
verve     
vargas     
var     
vert     
gave     
server     
vases     
bevvy     
save     
raver     
veg     
vt     
tva     
vasts     
