sets     
sss     
sett     
est     
tet     
stets     
tees     
ese     
see     
es     
testes     
setts     
sse     
tests     
sst     
te     
et     
sees     
tsetse     
test     
tee     
settee     
ss     
se     
st     
stet     
set     
tees     
ts     
ste     
tess     
estes     
est     
tsetse     
st     
sett     
test     
te     
ese     
ts     
testes     
setts     
ss     
sees     
es     
stet     
testes     
tet     
set     
et     
