crank     
adman     
craven     
anal     
mensch     
gnus     
laban     
nz     
leans     
hanged     
wagner     
sync     
yang     
slants     
pence     
lng     
annual     
dena     
grands     
nagger     
alumna     
lane     
mavens     
karen     
manses     
chant     
leanne     
lanka     
uncle     
rune     
funky     
fluent     
veneer     
under     
nash     
lunge     
mynas     
lanny     
nus     
hannah     
gansu     
rene     
harden     
eden     
shank     
guns     
sadden     
waxen     
furman     
punch     
