hexes     
pyxes     
taxa     
texes     
earwax     
waxes     
xterm     
ext     
regexp     
expats     
crux     
styx     
ex     
durex     
excuse     
texas     
xemacs     
saxes     
rx     
pyx     
faxed     
vexes     
px     
wessex     
exurbs     
pyrex     
sex     
texts     
fax     
exam     
faux     
xerxes     
regex     
expert     
exams     
sexes     
texes     
exceed     
tuxes     
exerts     
gacrux     
exurb     
pretax     
tux     
acrux     
vex     
exes     
waxed     
tex     
faxes     
