dryads     
tardy     
swards     
def     
bards     
tacked     
dasher     
badge     
fused     
beamed     
patted     
fessed     
camped     
dy     
sward     
gad     
wed     
erred     
demur     
taped     
maude     
defter     
deafer     
bused     
sedge     
feeds     
wader     
debate     
armed     
evades     
dread     
cud     
pursed     
spades     
geared     
decade     
gauged     
redrew     
dhs     
bard     
mcadam     
hardy     
rutted     
rad     
drag     
hydras     
decks     
bad     
fades     
daddy     
