stats     
as     
etas     
ats     
easts     
estate     
state     
etta     
stat     
tat     
tea     
aaa     
ea     
tate     
ta     
tats     
seats     
eats     
attest     
tease     
teat     
tass     
assess     
sea     
sta     
teats     
states     
sase     
tessa     
sate     
seas     
sass     
ssa     
ease     
ass     
east     
taste     
sa     
eat     
at     
sasses     
asst     
asset     
aa     
eases     
sat     
sa     
seat     
sates     
teases     
