hayes     
ayahs     
ahab     
ashy     
beth     
has     
thy     
heat     
hhs     
share     
ghat     
ha     
hrh     
gash     
rehab     
heart     
swaths     
hate     
hs     
harsh     
haber     
wherry     
hears     
hera     
teeth     
wreath     
hawk     
reheat     
bashes     
harare     
hebrew     
haw     
he     
shark     
shears     
rewash     
hatter     
sash     
ayah     
sheer     
kwh     
heft     
father     
shares     
hewer     
hefts     
hates     
esther     
shes     
here     
