recd     
pasted     
murder     
dammed     
ddts     
dp     
warder     
dubbed     
ads     
mugged     
termed     
dub     
dyers     
sade     
dryer     
damage     
crewed     
drabs     
backed     
deeded     
seed     
dds     
dad     
fred     
fades     
fraud     
defers     
bushed     
farads     
budget     
deer     
dryad     
fated     
tabbed     
stated     
rad     
dc     
teamed     
stayed     
deffer     
dug     
dust     
cabbed     
edges     
recede     
parked     
duse     
dawes     
ted     
madder     
