eat     
eats     
sat     
stats     
sates     
attest     
sass     
ats     
assets     
sasses     
tass     
asses     
as     
sea     
sates     
ea     
sta     
taste     
teases     
stat     
tate     
ta     
tastes     
tea     
eats     
ass     
state     
at     
estate     
seat     
sase     
teas     
tats     
easts     
eases     
teat     
aa     
tessa     
sa     
asset     
seats     
ate     
seas     
assess     
tat     
tease     
tats     
east     
etta     
aaa     
