bats     
barb     
abets     
bases     
ebert     
brett     
ebbs     
abbess     
bass     
beasts     
barres     
baster     
batter     
aba     
baa     
ebb     
barest     
stab     
berra     
saber     
babes     
abbe     
bates     
abases     
baas     
be     
bras     
abbes     
beets     
abases     
serbs     
ab     
reba     
bess     
sabers     
abet     
rabbet     
betas     
br     
brats     
baser     
basest     
bears     
beset     
bast     
bastes     
basses     
abs     
bbb     
berets     
