beater     
bette     
brest     
bbses     
breast     
bras     
barer     
beets     
beast     
baas     
bears     
bates     
reba     
aba     
stabs     
beasts     
babe     
abet     
basses     
tbs     
bert     
bases     
bsa     
baster     
barres     
braes     
brat     
basest     
br     
bar     
batter     
bb     
bats     
sb     
beat     
bear     
beers     
barbs     
brats     
abe     
sabras     
bess     
baste     
barbra     
bret     
brr     
rabbet     
bare     
bass     
barb     
