bmws     
pawpaw     
ewa     
spews     
weasel     
saws     
pew     
malew     
mawe     
paw     
wpm     
swaps     
bawl     
swap     
mewses     
awes     
lbw     
wells     
swabs     
ssw     
mews     
gw     
mew     
eww     
pw     
weagle     
www     
lew     
swag     
gawps     
wasp     
slew     
swam     
swab     
sewall     
slews     
wags     
sewell     
mawes     
was     
webgl     
mawes     
sews     
lewes     
sw     
webs     
walls     
wales     
webb     
mewl     
