jehle     
jules     
jacke     
hajdu     
jvms     
judged     
jack     
puja     
jess     
jg     
judy     
juleps     
japes     
deja     
jeeps     
lbj     
juggle     
jammed     
seljuk     
hajj     
jayme     
pujas     
jvm     
abuja     
java     
jabbed     
jams     
pyjama     
jells     
jpegs     
jaws     
ju     
jewel     
jades     
jays     
baja     
judaea     
jade     
jews     
jamb     
japed     
jeff     
jugful     
jell     
jehu     
judas     
jambed     
jeep     
jaws     
jemal     
