babes     
blames     
bse     
bae     
bbs     
albee     
bsa     
blebs     
bagels     
abbess     
ebbs     
bleep     
glebes     
lab     
bag     
balla     
bleeps     
abbas     
basel     
mabe     
eb     
gamble     
mabel     
alba     
bless     
bp     
gb     
blags     
mamble     
begs     
emblem     
abegg     
pleb     
label     
seb     
bas     
mb     
mbbs     
beagle     
gable     
baba     
lbs     
gab     
babe     
ab     
bel     
ababa     
melba     
sable     
ebb     
