halal     
elmham     
hmm     
hp     
hamal     
hbm     
ashy     
phys     
hype     
welham     
shy     
ssh     
ahas     
mahwah     
ashley     
whew     
shem     
bashes     
masham     
mayhap     
hyphy     
wheels     
shale     
yahweh     
pashas     
haley     
mashes     
glyph     
lashes     
kesha     
hap     
meshes     
leah     
flash     
keyham     
hyphal     
shaggy     
halley     
plash     
sheesh     
hawks     
whelms     
wheel     
lymphs     
haps     
shekel     
aha     
hymes     
hayek     
hash     
