exuded     
exudes     
exec     
xylems     
axles     
lexeme     
flux     
exelby     
waxes     
xmas     
excel     
excels     
claxby     
ajax     
vaxes     
mmx     
haxby     
plexus     
waxes     
hexed     
lux     
pbx     
lexham     
pbx     
haxey     
exhall     
faux     
sexy     
fluxes     
maxey     
execs     
laxly     
excess     
flexes     
px     
wexham     
beaux     
exams     
axle     
max     
luxes     
flaxes     
xyz     
lxde     
sussex     
laxay     
xu     
axels     
huxley     
faxes     
