shakes     
meh     
pshaw     
wyham     
phs     
whyle     
haslam     
kph     
lasham     
swash     
shelf     
ahas     
welham     
phage     
meshaw     
salah     
hesse     
pekah     
lash     
samah     
halsey     
bah     
hasps     
hassle     
shabby     
hell     
shaw     
haem     
walham     
shh     
halama     
shawms     
hales     
hba     
hashes     
hamsey     
whelm     
whee     
sheesh     
yahweh     
pagham     
kwh     
sshes     
glyph     
ash     
hess     
sh     
heh     
akasha     
shawls     
