tapped     
betley     
elects     
etch     
tale     
tatham     
tames     
bat     
taf     
pabst     
hythe     
tls     
platte     
ketley     
they     
apt     
cust     
thugs     
teabag     
atx     
fetch     
justly     
tuhua     
caputh     
wasted     
sault     
setted     
fatwa     
amulet     
acta     
betws     
texts     
stepps     
hethe     
adapt     
taxed     
tumult     
tulle     
duplet     
fatty     
shat     
hesket     
kept     
matata     
duets     
mautby     
team     
sst     
hasty     
ghats     
