smss     
amps     
ppm     
smp     
am     
mp     
sm     
mama     
smss     
mps     
msps     
smsas     
pam     
spasms     
msp     
smsas     
pms     
amma     
pms     
msm     
amass     
assam     
spam     
amp     
ms     
mmss     
ma     
map     
sms     
ms     
pampas     
mass     
spams     
amass     
sam     
mamas     
mas     
pm     
pampa     
maps     
mm     
ama     
spasm     
mms     
smsa     
sam     
massa     
smsa     
amps     
mm     
