flake     
ff     
pfs     
fey     
fe     
fay     
feb     
leaf     
fess     
waaf     
myself     
sf     
femmes     
gaff     
alfa     
flabby     
fly     
leafy     
fees     
femme     
flaws     
afk     
faffs     
fable     
mfg     
felley     
flews     
keef     
fags     
beefs     
fab     
feely     
faa     
flaks     
waffle     
flame     
fame     
fag     
flab     
flap     
flappy     
gaffs     
fees     
faff     
spf     
fames     
fm     
flag     
flak     
feel     
