gallup     
glues     
gulley     
muffs     
bugs     
papule     
skulks     
glug     
uavs     
usable     
cups     
bully     
aluph     
yup     
bluely     
usages     
busk     
bubb     
hapua     
fully     
lumps     
plug     
paula     
slums     
hubbub     
smugly     
palpus     
bus     
bagful     
humphs     
fulke     
blue     
scuff     
plushy     
cubley     
pukka     
bubble     
ecus     
kuala     
gulp     
bull     
chuffs     
buccal     
suck     
plumps     
pull     
wausau     
yuma     
blum     
lulls     
