indio     
locust     
owego     
boobed     
galoot     
taboos     
clio     
zonked     
oil     
owlpen     
adolph     
hooft     
eponym     
joanne     
homed     
meols     
petone     
biome     
scoots     
stones     
dolby     
foles     
dohme     
chemo     
bengeo     
goggle     
shoos     
col     
quod     
holey     
foxy     
videos     
fatsos     
gloats     
globes     
elopes     
shod     
amount     
moats     
hoxne     
coup     
cogan     
botus     
spigot     
ossett     
symbol     
posit     
aloe     
tome     
fovant     
