indole     
sop     
copd     
boxley     
oga     
venoms     
bookie     
dolske     
sotby     
divots     
pao     
blot     
gough     
smog     
goods     
coated     
lawton     
hods     
jostle     
ponca     
dopey     
aesop     
mouing     
physio     
cosy     
tinton     
emboli     
cont     
obi     
sought     
jobs     
hoodoo     
bonded     
decode     
mowed     
goodie     
kowhai     
tout     
motel     
toi     
buyout     
slough     
tops     
kokhba     
pinto     
bothal     
comely     
blots     
wotton     
gayton     
