yahveh     
halve     
level     
slav     
av     
vga     
vfw     
alvah     
level     
vega     
meavy     
eval     
vhf     
velma     
alva     
laval     
hpv     
vases     
eves     
eave     
savage     
slaves     
levee     
vm     
veep     
aveley     
ava     
eva     
salve     
helves     
wave     
vf     
paves     
lavey     
vegas     
yves     
fav     
faves     
agaves     
peeves     
heave     
kev     
mpv     
saves     
shave     
beeves     
valk     
shelve     
slavs     
veg     
