weal     
wpm     
paws     
wem     
alaw     
www     
wage     
lewes     
pawpaw     
eww     
wagga     
peewee     
gawps     
gawp     
weagle     
walls     
maws     
law     
swabs     
wass     
agawam     
papaw     
swags     
mawe     
bawl     
weasel     
gewgaw     
wma     
sewall     
ssw     
awe     
wages     
mewls     
slew     
sw     
webgl     
wee     
ewell     
swab     
pawl     
swells     
swages     
bawbee     
paw     
swale     
papaws     
pews     
blew     
swamp     
mewses     
