delest     
sweat     
flutes     
sweats     
aleut     
stylus     
patch     
atx     
ut     
sleat     
sat     
gulet     
dumat     
duvet     
steeg     
date     
lusty     
hdtv     
heathy     
stage     
tech     
styles     
talk     
byth     
pasta     
gulets     
putted     
faust     
thefts     
thee     
metal     
pasted     
jests     
hepcat     
tau     
hawth     
bettys     
feted     
lutz     
vests     
tyga     
teasel     
whets     
attest     
tey     
tatham     
tests     
eluate     
vastag     
vested     
