leases     
pe     
sleep     
elle     
lees     
esa     
pease     
apes     
lase     
melee     
sees     
mlle     
palea     
ells     
sesame     
lemme     
mme     
peas     
male     
ems     
peal     
alee     
seals     
apples     
sale     
seal     
es     
leas     
pell     
ease     
pspell     
lapels     
smell     
elm     
ela     
elsa     
eplp     
sae     
sleeps     
sepals     
peels     
mep     
ales     
emes     
less     
pales     
pee     
apse     
lessee     
messes     
