bleed     
vdu     
velds     
dlls     
mewled     
eludes     
speed     
slued     
beds     
heaved     
smudgy     
saddam     
dahl     
segued     
fled     
slewed     
duels     
deemed     
madame     
damply     
mulled     
seeded     
deafly     
dusky     
sadly     
peeked     
hewed     
deal     
deeded     
lade     
washed     
kudus     
sealed     
padded     
dmg     
balded     
fda     
baddy     
ebbed     
added     
chad     
spade     
dumbed     
clydey     
faded     
cd     
allude     
swede     
phd     
fylde     
