spss     
asa     
pas     
saps     
pass     
pp     
ssa     
pa     
ass     
pps     
ap     
ps     
spa     
ssas     
papas     
aaa     
pa     
pap     
apa     
aa     
sas     
app     
ps     
sa     
ss     
sss     
papapa     
apps     
spas     
ppp     
sap     
as     
papa     
asp     
sas     
asap     
pps     
papa     
spas     
spss     
asp     
asps     
asps     
ass     
asap     
app     
pass     
sap     
as     
saps     
