lexus     
exhume     
exelby     
xmp     
vexes     
ex     
essex     
faux     
excuse     
exec     
hexes     
lexham     
axle     
lux     
dexes     
sexes     
flax     
expel     
xu     
flex     
plexus     
wexham     
exudes     
xlsx     
bxs     
cuxham     
kexby     
flaxby     
max     
px     
hex     
alex     
waxy     
lxde     
fluxed     
calyx     
sexed     
ajax     
sussex     
culex     
vex     
apex     
jagex     
huxley     
axed     
pbx     
exams     
exp     
haxey     
huxham     
