jumpy     
jades     
judd     
jamb     
jap     
jpeg     
jvm     
jelly     
japs     
jebb     
jew     
jugs     
jpy     
bajada     
judged     
jumps     
jell     
abuja     
djs     
jays     
jay     
dj     
pujas     
jam     
jab     
jeffes     
jul     
jumped     
jaycee     
jabba     
jelled     
juba     
jacky     
lbj     
jg     
judy     
jamaal     
juab     
jag     
jells     
jackal     
jacke     
jugged     
baja     
hajj     
jaume     
jada     
jemmy     
japes     
vj     
