elapse     
plea     
selma     
messes     
meal     
ep     
sae     
sep     
pale     
eels     
melee     
lapses     
meme     
peele     
lapel     
epa     
pleas     
allee     
paleae     
lemme     
seep     
me     
ella     
else     
seam     
peas     
ellel     
smells     
peps     
ease     
apses     
eel     
esp     
apes     
lapels     
mes     
salle     
males     
meese     
seems     
mel     
ells     
seale     
sees     
pella     
ape     
alee     
pep     
peale     
lee     
