piquet     
squads     
quell     
quiets     
basque     
bbq     
caique     
squaws     
queen     
gasque     
quad     
squad     
quasi     
hq     
aquila     
equal     
cinque     
quail     
faq     
equips     
squid     
quip     
squeak     
qijun     
qing     
cheque     
quells     
iqbal     
quilt     
quick     
qua     
equate     
nasdaq     
squids     
equine     
sql     
sequel     
squawk     
liquid     
bisque     
siqi     
sq     
quine     
pdq     
squats     
quill     
quaff     
acquit     
qubit     
quench     
