bulgy     
bulbul     
pulse     
hues     
busk     
sues     
mauve     
album     
yeshua     
upc     
cube     
byssus     
cuff     
susses     
accuse     
paull     
yuga     
schuss     
bulbs     
causes     
clubs     
campus     
hulas     
supply     
full     
hauls     
bacup     
sup     
muchly     
beau     
guam     
fluffy     
cauchy     
palau     
sugwas     
bulk     
pules     
chumps     
emmaus     
fugal     
paul     
whau     
clump     
eau     
hums     
abuses     
sumps     
slugs     
gauche     
huh     
