seemly     
amply     
elmley     
belay     
skype     
assay     
pebbly     
byway     
yawp     
malaya     
lyell     
sapey     
allays     
myles     
peepy     
balgay     
yell     
sawley     
waylay     
pygal     
papaya     
wyss     
byways     
bassey     
lays     
mealy     
kaley     
skegby     
allay     
kyle     
yak     
alby     
maya     
gabby     
leeway     
slyly     
emmys     
lyle     
spay     
apley     
gawley     
messy     
semley     
kayla     
pewsey     
aby     
sky     
galway     
aye     
ways     
