fazed     
dz     
jeeze     
amazed     
jazz     
faze     
velez     
mazza     
abuzz     
balzac     
zuz     
zebus     
hazy     
hazed     
gazes     
gauzed     
kazakh     
gauzes     
jazzed     
gaze     
plazas     
buzz     
haze     
sleazy     
laze     
hazel     
khz     
gaza     
edzell     
zap     
zappy     
lazes     
zavala     
ablaze     
azam     
jeez     
fezzed     
wheeze     
azusa     
zb     
gazump     
fezzes     
hazels     
buzzes     
czech     
jazzy     
gazed     
zac     
zug     
ahaz     
