dounby     
masons     
tomson     
scotia     
sodden     
atoned     
comix     
soughs     
poised     
yolks     
moated     
osmond     
cloud     
gop     
kokomo     
plonks     
hoddam     
oliffe     
skopje     
ohoka     
moneys     
shoji     
hoxha     
opine     
amok     
monist     
doff     
hendon     
housed     
quoth     
mosby     
ohs     
joplin     
asbo     
hops     
spools     
howley     
conlig     
newton     
goblin     
anglo     
ofens     
ohm     
founds     
popes     
poodle     
object     
phoebe     
decoy     
jumbo     
