chalke     
cabby     
clams     
calves     
black     
mcafee     
chee     
clap     
acme     
awacs     
lace     
scalp     
cages     
aleck     
chefs     
class     
shack     
ssc     
cmg     
place     
cabal     
wych     
scala     
cache     
flacks     
came     
paces     
calmly     
camp     
cakes     
faceby     
kelce     
cheesy     
clef     
clapp     
chef     
chav     
palace     
acmes     
cl     
achy     
emacs     
csys     
bcc     
chyme     
pfc     
fleece     
clasps     
cheap     
cley     
