quakes     
squibs     
unique     
sequin     
quayle     
equals     
quaky     
quay     
quaff     
squads     
mysql     
quint     
equate     
quasi     
qaeda     
equity     
qt     
quiz     
piqued     
quinta     
quids     
squall     
gasque     
qing     
squee     
quilts     
quench     
qkd     
aqua     
basque     
quips     
quag     
acquit     
squids     
squawk     
squeal     
quanta     
hq     
qi     
qualms     
sequel     
squill     
quizzy     
squats     
queued     
cinque     
daqing     
equip     
squaws     
queen     
