masc     
specs     
chaves     
pack     
ywca     
chem     
places     
flac     
hachey     
mckee     
camas     
chef     
schwas     
calve     
macaw     
whack     
maces     
calm     
calke     
awacs     
mccabe     
cha     
chalks     
bc     
ecc     
ac     
cafes     
mescal     
cabal     
clamp     
malbec     
clam     
efface     
cap     
cam     
champ     
cabs     
chavvy     
alsace     
clefs     
came     
mckay     
csys     
alcea     
fach     
cashes     
pleach     
wyclef     
clapp     
kelce     
