agp     
geese     
lgpl     
gsm     
gamma     
pgp     
ge     
gal     
saga     
gasses     
galas     
gapes     
gases     
games     
gleam     
ga     
gamgee     
slag     
lga     
gaea     
plages     
mag     
gap     
gap     
age     
segal     
game     
peg     
gage     
pelage     
gsa     
legs     
gales     
gas     
ega     
gasp     
algal     
glamp     
allege     
plage     
gael     
gleams     
gages     
glams     
glam     
sagas     
mpg     
gale     
glees     
glee     
