setup     
saltby     
hatful     
beet     
hythe     
fetes     
theft     
beets     
thamm     
tash     
whets     
tuft     
fealty     
latch     
acted     
flt     
th     
clutha     
empath     
ducts     
zte     
chuted     
lamest     
keats     
sweet     
vat     
meted     
chevet     
thuds     
gut     
ata     
mated     
hustle     
zte     
jests     
weft     
pate     
stuffs     
safety     
gadget     
teams     
gautby     
caputh     
tams     
tdd     
ablate     
ketley     
twa     
chutes     
est     
