cavils     
spadix     
chine     
disley     
lufkin     
liff     
cygwin     
tiny     
nib     
lytic     
indite     
mingle     
bipeds     
slink     
mcgill     
schick     
sties     
libs     
ifans     
ism     
lanai     
fyi     
fifes     
wipes     
haggai     
puffin     
uist     
embiid     
fiddly     
aside     
caning     
ides     
upsize     
listen     
sail     
induce     
laving     
haynie     
sshing     
libya     
kinase     
acacia     
byssi     
ling     
heide     
plaid     
slicks     
hick     
dizzy     
isp     
