wff     
fable     
flybys     
flees     
flame     
sf     
sawfly     
myself     
false     
pelf     
fees     
bf     
fesses     
self     
fees     
emf     
fly     
mfg     
flays     
fsa     
fawkes     
feels     
afk     
befell     
fab     
fake     
feeble     
fag     
leaf     
flyby     
fs     
gaffe     
fame     
fem     
flaps     
ff     
beef     
flay     
felley     
flea     
aflap     
fames     
fame     
fy     
faffs     
elf     
flagg     
flabs     
flabby     
fess     
