yvan     
newnan     
jaunts     
fan     
lunged     
usn     
henley     
knead     
unseat     
ealand     
maven     
ewan     
angles     
senn     
pennal     
mewan     
sand     
mantel     
lavant     
helens     
alnham     
henge     
alden     
landau     
sunbed     
seanad     
stank     
panax     
slant     
kahn     
hen     
juneau     
scant     
lunan     
blend     
waxen     
buckna     
nanak     
ana     
enemy     
nbs     
suns     
knack     
funked     
fabyan     
neep     
manea     
tends     
gunned     
gasmen     
