kells     
week     
peak     
peaks     
klawe     
keal     
ekes     
kee     
speak     
awake     
asks     
bleaks     
kames     
aske     
askew     
wake     
kbps     
basks     
kkk     
peka     
keg     
splake     
walk     
elks     
ekg     
keele     
gask     
kappa     
kama     
masks     
keble     
week     
kemp     
kale     
kebab     
kales     
slake     
leeks     
ask     
kelp     
kelps     
ak     
bewkes     
kegel     
leaks     
blake     
mka     
kegs     
aka     
peke     
