tadlow     
nodes     
gods     
totals     
tomcat     
gibson     
joanna     
clots     
bowled     
coogan     
quoll     
mahout     
biomes     
sows     
oleg     
defcon     
boone     
okay     
gnomic     
blots     
loops     
spoofs     
kolyma     
hodnet     
congo     
owned     
wino     
egton     
camino     
phobos     
sonnet     
dynamo     
poetic     
westoe     
wooden     
dionis     
hoses     
denton     
hapton     
cox     
dioxin     
oft     
body     
wigton     
stoke     
bogged     
sou     
maddox     
bodney     
totes     
