peale     
peas     
mepal     
ape     
apes     
messes     
elapse     
pleas     
lase     
pales     
pea     
sell     
meal     
eplp     
sepal     
palea     
elm     
ease     
aes     
esa     
lemmas     
paleae     
selma     
peps     
leaps     
masses     
sepals     
peeps     
leases     
el     
sepses     
mallee     
allee     
pele     
lame     
meals     
ems     
appeal     
eel     
seep     
sale     
le     
lases     
lapses     
paella     
lemme     
elma     
apses     
samael     
sample     
