plea     
mepal     
pep     
eels     
please     
sell     
peps     
masses     
elm     
smells     
emes     
less     
melees     
seals     
sleeps     
assess     
pea     
apse     
apple     
pamela     
mae     
leaps     
lapels     
semele     
ellel     
ales     
lasses     
sepal     
memes     
ells     
se     
ample     
aspell     
mesas     
lases     
ell     
peep     
sees     
elapse     
elle     
sepses     
seas     
selma     
emme     
em     
allele     
pease     
ape     
peas     
mme     
