gall     
mags     
agp     
agpl     
sega     
mag     
gammas     
segal     
gap     
glams     
peg     
gammas     
sags     
agaa     
gaea     
sag     
gael     
egg     
gamgee     
algae     
gasses     
egg     
galls     
legal     
pelage     
lags     
gaga     
gamma     
eggs     
legs     
gsa     
gem     
gm     
mgm     
sagas     
sages     
gage     
gales     
gpss     
glamps     
ag     
gages     
gal     
eagles     
sg     
gleam     
gps     
mg     
eagle     
pg     
