chuff     
usc     
ambush     
uefa     
bubbly     
bushes     
uv     
leucu     
yucca     
plus     
hulme     
sumacs     
laugh     
uav     
glue     
chuppa     
vulval     
culpas     
plumbs     
susses     
mums     
wu     
subak     
eggcup     
flukes     
bemuse     
beulah     
plums     
slushy     
skuas     
muscle     
slubs     
mushy     
usha     
sues     
humbug     
suva     
uvula     
baulk     
waukee     
use     
yule     
fug     
gulley     
cub     
fusee     
suave     
macau     
pub     
magus     
