smss     
amps     
sms     
mmss     
maps     
mps     
amma     
msps     
spasm     
pampa     
ma     
sam     
mamas     
smsa     
mama     
sm     
msm     
amass     
ms     
spams     
mas     
mp     
mass     
pampas     
msp     
am     
amp     
pms     
ppm     
mm     
assam     
map     
spam     
pm     
spasms     
smsas     
smp     
ama     
mms     
massa     
map     
pampa     
msm     
massa     
mms     
pam     
pam     
mas     
msps     
ppm     
