sulcus     
muscle     
eu     
cups     
hubby     
apu     
fuse     
hula     
sum     
kuala     
campus     
guppy     
bluely     
fuss     
vulvae     
plucks     
blum     
puffs     
mush     
gus     
sup     
usable     
euless     
subkey     
bulky     
pauses     
eggcup     
mumble     
bugles     
humphs     
samuel     
spumes     
gallup     
plum     
culls     
callum     
pumas     
laugh     
pup     
mugabe     
yuccas     
caulk     
emu     
plus     
vuggy     
kulaks     
pups     
plummy     
ugh     
clue     
