lydiat     
pinked     
dailly     
snitch     
paible     
malawi     
mastic     
inanna     
whiles     
weiten     
caiman     
cain     
zeiss     
sift     
isis     
fitly     
hexing     
milden     
bedims     
mcgill     
piss     
espied     
wigged     
wining     
amines     
infeed     
unity     
sunni     
isaiah     
silva     
manics     
timble     
pinned     
stitch     
lamium     
minks     
wights     
kisch     
gills     
fiscal     
lines     
widish     
bhaji     
kim     
pinal     
lings     
islets     
witty     
tahina     
gina     
