casale     
schaff     
slack     
cess     
cw     
schaw     
wacky     
chalky     
calmly     
chav     
cases     
scalp     
flecks     
celeb     
backs     
bleach     
faeces     
wyclef     
aback     
casaba     
ecb     
acle     
chaff     
scabby     
leech     
cheesy     
blacks     
claps     
apace     
acw     
peck     
cabala     
bcc     
chewy     
kelce     
pcm     
cycles     
cay     
chaves     
alsace     
bce     
pacey     
clabby     
cpl     
case     
calms     
casbah     
clamps     
laceby     
chafes     
