bruera     
profs     
rifest     
immure     
ergham     
surf     
proing     
douro     
garget     
burst     
dredge     
moors     
draft     
rotted     
worry     
munro     
sparks     
dora     
arab     
curie     
sunder     
cromer     
tenure     
mrna     
maxtor     
deere     
pears     
plural     
sugars     
merck     
bedder     
niro     
urea     
braid     
hydra     
redraw     
torn     
shafer     
fare     
briber     
ware     
repeal     
trepan     
trans     
roshi     
marcia     
hadzor     
ecru     
aymara     
burr     
