hba     
phew     
whelks     
sash     
ashes     
whale     
kwh     
whelps     
sylphs     
lasham     
whew     
whams     
sham     
blahs     
alpha     
pshaws     
shahs     
haggs     
shap     
elah     
hammy     
she     
hemp     
halama     
shell     
hamm     
elsham     
hags     
hegel     
helps     
whey     
ssh     
mahwah     
plashy     
mayhew     
esh     
shabby     
eglash     
baasha     
hemel     
selham     
phews     
haase     
blah     
hbas     
he     
hypes     
glyphs     
heals     
hal     
