quips     
squads     
wefaq     
quinn     
quilts     
quine     
squaw     
squish     
caique     
quick     
squat     
plaque     
quaked     
equip     
quests     
queasy     
iqs     
gasque     
qubit     
quiche     
iq     
squib     
quacks     
piqua     
quays     
aquas     
pdq     
quid     
queue     
liquid     
mysql     
quids     
sequin     
qc     
qcd     
acquit     
quash     
quinsy     
quiff     
queued     
squabs     
squids     
qa     
quads     
squats     
qkd     
unique     
daqing     
quip     
piqued     
