nuzzle     
enums     
npd     
tauten     
gen     
speen     
menu     
layman     
uncle     
en     
kanak     
net     
punch     
newel     
havana     
banns     
haunch     
peahen     
santee     
deaden     
aunty     
skunk     
snafu     
selene     
bunkum     
bunt     
tunes     
juntas     
lassen     
nabet     
sewn     
leaned     
wakens     
encyst     
hawnby     
pawn     
dampen     
waen     
newham     
elands     
panax     
yn     
fagans     
bunts     
anally     
hanse     
lenten     
venule     
sankey     
eden     
