toity     
vonn     
godson     
benoni     
canons     
cogged     
kilohm     
stenos     
sothos     
woke     
foods     
psycho     
pogo     
knowe     
layton     
bodney     
token     
stony     
hyssop     
ciaos     
younis     
dido     
bolte     
eliot     
bloke     
bod     
noetic     
elton     
heddon     
hydon     
non     
poet     
moans     
socio     
jacoby     
vevo     
inchon     
spots     
posses     
conic     
josie     
oafish     
quoins     
alamo     
openly     
jokes     
joined     
alloy     
hobnob     
duomos     
