mbps     
basel     
begs     
labs     
pebble     
blebs     
blame     
bleb     
lambeg     
bbs     
sambas     
be     
gamble     
balm     
beams     
bpm     
beam     
beep     
besses     
abe     
ebbs     
abbas     
albee     
mabbe     
bees     
baas     
lbs     
abel     
babe     
bagel     
beal     
beal     
besses     
alba     
bell     
bale     
bless     
llb     
bbl     
ball     
slabs     
bemba     
bales     
blabs     
beep     
bas     
bas     
mmb     
abbs     
blab     
