waka     
mks     
kales     
kea     
km     
salk     
bleak     
awks     
walk     
beaks     
peek     
ka     
keal     
balk     
geek     
kelps     
weeks     
keels     
leaks     
kama     
swak     
walks     
elks     
kegel     
aske     
kappa     
slakes     
wakes     
gawks     
kames     
spake     
sake     
peke     
lemke     
kells     
kassel     
pask     
ks     
keel     
wake     
kebabs     
lakes     
masks     
kemp     
skea     
elk     
splake     
kgb     
speke     
kelk     
