bashed     
used     
udf     
chafed     
washed     
budd     
alkyds     
balled     
ads     
budges     
bagged     
sd     
bede     
lydd     
pudge     
delays     
mede     
bled     
dull     
agedly     
admass     
medals     
madams     
seedy     
fudged     
ladle     
eked     
ladles     
duke     
beefed     
hauled     
hylda     
sledge     
ssd     
duffus     
educ     
gashed     
ledge     
faked     
sashed     
daly     
cycled     
sshed     
decked     
ledges     
palled     
gagged     
dub     
gushed     
devs     
