sieh     
ostias     
geeist     
isis     
eis     
biss     
silbe     
kib     
bilche     
bimmle     
michel     
debil     
mit     
sippe     
schumi     
zielte     
ascii     
spiet     
pleite     
kischs     
lydias     
wimmle     
limit     
sylvia     
api     
kiel     
leibes     
pampig     
ilex     
kumasi     
zwille     
ewig     
beeile     
sicht     
sozii     
chaoit     
zitz     
keims     
iata     
sambia     
oxids     
vivo     
gemimt     
ai     
filzte     
dpi     
ambig     
stiehl     
beitel     
tchibo     
