passat     
astas     
pappt     
pasta     
pappt     
tapst     
asta     
patt     
saat     
tatst     
tappt     
passt     
spats     
at     
ast     
statt     
satt     
tapas     
staats     
tappst     
pappst     
tat     
asst     
patt     
sasst     
patts     
astas     
spat     
spasst     
staat     
papst     
ptt     
tapas     
statt     
spasst     
passt     
tapst     
asta     
satt     
passat     
ptt     
tat     
staats     
tappst     
tatst     
pappst     
saat     
at     
staat     
asst     
