vogtes     
vdk     
velos     
vkdl     
havel     
steves     
vga     
vage     
dvds     
oktave     
vakuum     
balve     
kgvs     
tuev     
vettel     
mauve     
vw     
vamps     
votums     
dphv     
vlotho     
java     
mv     
vopo     
vamp     
yves     
hovel     
malve     
javas     
oetv     
vokals     
volkes     
vogels     
vagem     
detlev     
bsv     
levels     
veda     
valuta     
volle     
vollst     
volute     
vespas     
vetos     
velo     
volvos     
vages     
luvs     
balves     
vollem     
