etuis     
sie     
fujis     
liebe     
siegte     
leiche     
pixels     
kumasi     
wiegte     
tutsis     
heimes     
miaue     
midi     
pike     
iwf     
zwick     
folio     
bei     
sippe     
ali     
seifst     
gipfle     
wichte     
mistet     
emsige     
kiste     
cookie     
wims     
dali     
beicht     
lisp     
dito     
spiele     
die     
lilie     
media     
exils     
heutig     
stick     
studi     
mius     
tivoli     
gbit     
seitig     
aktiv     
mistel     
fiept     
boogie     
belial     
fixums     
