bsp     
ebbe     
belle     
labsal     
lebe     
selbes     
bebels     
ballst     
stabst     
basta     
tabs     
label     
beates     
abebbt     
beete     
balle     
beta     
blass     
ablast     
balte     
selbst     
betet     
ablebe     
betts     
baete     
abesst     
bettes     
belt     
bast     
staebe     
elbe     
bp     
bea     
lebtet     
abesse     
lab     
labte     
basal     
blesse     
blasse     
plebs     
elbas     
beat     
salbe     
best     
selbe     
lebst     
basses     
best     
blase     
