mehl     
behalf     
hafte     
lahmem     
lahmes     
shell     
geht     
cache     
phs     
chalet     
checke     
halbem     
achs     
abhake     
ahle     
dhcp     
behebt     
hammam     
ehest     
hakte     
aha     
specht     
themas     
haems     
dach     
scheck     
schalk     
besah     
wechte     
hasche     
theas     
aach     
hemme     
chf     
lechs     
achte     
elches     
hebe     
faches     
stehe     
gehakt     
hemmt     
chams     
hefte     
mahles     
fachte     
asche     
kehlst     
elch     
theta     
