eitert     
fuerth     
vergor     
droh     
dagmar     
kadern     
cardin     
geier     
lipper     
ansgar     
wimmer     
wartes     
prinz     
krayon     
tonsur     
hudre     
mobber     
center     
krill     
hasser     
romeo     
dueren     
horsts     
story     
spornt     
prag     
wrang     
kursk     
genres     
wasser     
kruges     
pikier     
goar     
arals     
derart     
portal     
hauer     
erdet     
bechre     
traut     
marc     
rodas     
hadron     
gerds     
spart     
graus     
wirr     
hoerte     
grient     
innern     
