bgs     
aeg     
atg     
abgas     
gas     
gema     
dgb     
geaest     
laegst     
geldes     
gebell     
belege     
sagt     
tegel     
begase     
tag     
sagtet     
gefegt     
absagt     
legate     
begast     
gable     
lege     
gaffe     
gpl     
mag     
talgs     
abgabt     
etage     
gaebet     
sage     
belegt     
segele     
gab     
gatte     
segle     
egel     
leg     
galtet     
stalag     
dgtp     
gemalt     
gelte     
bagdad     
lage     
geest     
begabt     
bettag     
segge     
plagte     
