vmos     
bevo     
sklave     
oktave     
tuevs     
agev     
volute     
vga     
oetv     
dvds     
voodoo     
kuvs     
balve     
volt     
levels     
tuev     
vokal     
volley     
vagem     
vdk     
votum     
vages     
votete     
dphv     
mv     
vlotho     
vote     
davos     
luv     
fovea     
yvette     
yves     
velums     
velos     
eva     
vamps     
veda     
voegte     
vogtes     
vakuum     
vaals     
vespas     
volk     
evas     
volvo     
vogt     
vwv     
vokals     
ovales     
vkdl     
