kueken     
keulen     
eichen     
fauns     
pusten     
hufen     
daumen     
genf     
innen     
leine     
kniest     
meilen     
mven     
gnade     
neues     
amtend     
alien     
seinen     
hansen     
fassen     
befand     
kalben     
beines     
amten     
hanf     
tilden     
lanka     
sinke     
knaben     
funden     
hingab     
foehne     
london     
heinis     
chicen     
kalken     
spinde     
chopin     
kunde     
kissen     
sauten     
angola     
hemden     
kanten     
saeen     
ahnens     
nahes     
waten     
indigo     
sehens     
