pet     
spe     
statte     
tee     
stets     
peppst     
espe     
aeste     
spaete     
peseta     
passte     
tapste     
esst     
pate     
aese     
saete     
peppt     
spees     
spaet     
teste     
tests     
aest     
saest     
tappe     
passee     
stetes     
pest     
paste     
aases     
tapete     
saee     
eta     
stet     
see     
aestet     
ae     
pate     
passes     
tatest     
tappte     
esse     
pappte     
etats     
satte     
tapet     
spate     
aasees     
sept     
etappe     
et     
