gazen     
nippen     
nsdstb     
ahnte     
bohne     
aessen     
vulven     
bohnen     
toxine     
glan     
banjul     
nebeln     
senil     
nie     
ancona     
keltin     
pinkle     
exoten     
tunnel     
ladens     
indik     
nomen     
sehens     
begine     
halben     
latent     
hagens     
ekelnd     
thing     
agnat     
sagten     
nepal     
lankas     
zacken     
leonid     
oelen     
latein     
canon     
dingst     
baien     
katzen     
anlest     
samnit     
hexan     
tonale     
eingab     
unkst     
anubis     
onkel     
klinkt     
