leckte     
klacks     
cad     
deckel     
deckst     
keckes     
campte     
eckte     
weckt     
baeckt     
dctp     
wc     
bleckt     
flecke     
tbc     
fckw     
abece     
calls     
attacs     
deckt     
blecke     
abc     
abeces     
lecces     
taecks     
sackte     
lacke     
zweck     
bbc     
eck     
cape     
wackel     
packs     
lacks     
malbec     
dect     
zacke     
klacke     
deckes     
pascal     
fckws     
decke     
steckt     
esc     
zecke     
acls     
cm     
zwacke     
lack     
ecktet     
