ditzum     
zugig     
idols     
pisste     
die     
ohio     
sitze     
limo     
pampig     
taxi     
bai     
lifts     
dhabi     
klobig     
keile     
hiebes     
leids     
mielke     
voigt     
elativ     
kita     
bimmel     
akazie     
dix     
petzit     
fixtet     
dubio     
dill     
vicht     
iod     
halite     
ibm     
mix     
kippe     
diabas     
fiesem     
killst     
dick     
wikis     
boeig     
diaet     
chips     
modi     
tubuli     
maoist     
heisse     
bekais     
leidig     
heilst     
tippe     
