geigt     
keim     
tickst     
poppig     
billy     
speist     
pikte     
zitate     
mexiko     
filz     
valium     
utopie     
impfe     
ewige     
zwickt     
keilte     
bisst     
suite     
tamils     
stigma     
lisas     
blicks     
milbe     
axiome     
alices     
studie     
pilus     
sofias     
zwiste     
oelige     
hilfst     
pimpf     
bei     
sublim     
geisha     
agilem     
agutis     
fieses     
dippe     
beicht     
sissis     
yogi     
musizi     
ziesel     
spital     
liek     
seitig     
ei     
sippe     
miaut     
