labte     
bestes     
abbat     
betel     
abebbt     
ebbte     
bellte     
abt     
beete     
baesse     
bebte     
bebt     
bellt     
ablebt     
albtal     
basses     
stabe     
bsp     
blast     
asbest     
bass     
saebel     
bebel     
ebbt     
ablass     
bebe     
abel     
blatt     
belebe     
salbt     
balle     
ballte     
saeble     
bebte     
besass     
best     
bse     
ebbtet     
lebtet     
bett     
labtet     
beat     
bellst     
stab     
bettes     
bastle     
bebels     
betts     
beta     
batet     
