brands     
huber     
reiter     
gerade     
rockt     
bewarf     
madras     
verbal     
mordes     
acryls     
crawlt     
atrium     
korbes     
urteil     
kroate     
kronen     
urflut     
rtls     
tundra     
horus     
erbse     
berufe     
kauert     
riesa     
trete     
makler     
profos     
parke     
rauend     
biber     
teert     
umriss     
ironie     
talort     
murre     
rudel     
gbr     
erft     
armes     
triebt     
oberau     
grads     
ragtet     
atairs     
chlors     
leer     
lauert     
triade     
drills     
steuer     
