ldap     
pfade     
delta     
eads     
dfb     
dlls     
dattel     
adelte     
edda     
da     
deals     
felds     
bads     
baelde     
bda     
deal     
feldes     
sadat     
tadle     
delta     
tadelt     
pedale     
eddas     
laedt     
ablade     
pedals     
spd     
tdl     
fade     
delft     
assads     
bad     
led     
tadele     
datp     
edel     
dpa     
ade     
bald     
tadel     
adels     
adele     
pds     
ddatp     
sadats     
assad     
badest     
feld     
pfades     
des     
