tafts     
elftel     
fall     
efta     
aeffe     
taft     
fallt     
safe     
fatale     
fasst     
fes     
fett     
fabele     
felle     
pfaffe     
eefs     
basf     
faste     
eef     
effeff     
fessel     
aeffte     
fell     
paffe     
ff     
leffes     
fasele     
paffte     
fable     
apfels     
falls     
taffes     
taffe     
tafelt     
elft     
fetale     
fetts     
tft     
fabelt     
falle     
falt     
taefle     
fest     
alfa     
fettes     
alfas     
taff     
apfel     
faltet     
faelle     
