jobbe     
golzow     
tods     
hoefe     
abhob     
lohse     
foul     
umpole     
mops     
mofas     
lobst     
kola     
toste     
wog     
macho     
zollte     
tommy     
lotes     
boells     
pokal     
tote     
oblast     
loch     
umzog     
holm     
lago     
moos     
bloed     
depots     
loko     
poekle     
komm     
moeget     
dolly     
golfs     
bogst     
posse     
zoos     
boeget     
softe     
bolte     
saltos     
modul     
zogst     
schote     
sappho     
loew     
booms     
zopf     
stocks     
