fasel     
fata     
paffe     
fests     
fasste     
fasse     
safe     
lfs     
fettes     
fells     
elfe     
fatal     
tafel     
faste     
fetale     
effets     
alfas     
fell     
laffe     
paffte     
tafts     
fete     
aeffe     
baff     
elftes     
fasele     
taffes     
falls     
aefft     
falle     
felle     
apfel     
fasst     
felles     
falbe     
fetal     
aeffte     
falbes     
alfs     
falbe     
tafele     
elfe     
aeffst     
fallt     
falb     
safes     
alfa     
leffe     
faltet     
taefle     
