gelees     
balge     
gams     
etage     
gell     
segels     
stegs     
bagage     
malaga     
gaffe     
gala     
gebe     
mg     
dgtp     
gaeste     
galtet     
lage     
glatte     
gelle     
gelbem     
begast     
gebets     
bega     
gelabt     
gmt     
gatte     
getagt     
plagst     
plagt     
gelb     
gesas     
absagt     
lag     
gaebt     
bgb     
estg     
laages     
plage     
fegst     
ablagt     
page     
segels     
gaffte     
mpegs     
gebet     
geld     
gas     
mgs     
belegt     
gb     
