nilarm     
gretas     
rhe     
rispe     
korkig     
pregel     
zierde     
vierer     
hurra     
karsts     
rapid     
user     
morsch     
bomber     
reifem     
balver     
terpen     
likoer     
legere     
dorren     
sogar     
ritas     
rost     
sark     
nerven     
ruebe     
kurios     
raunte     
artet     
karde     
rize     
grills     
urvieh     
borge     
cursor     
lehrst     
weert     
kurzen     
mauser     
ortest     
vertut     
werbt     
salaer     
rekurs     
merzen     
drills     
erjage     
trajan     
motor     
rasch     
