zeltet     
besatz     
petzt     
patze     
zettel     
stelze     
azalee     
zappte     
letzt     
aetze     
zagte     
zells     
zappe     
setzt     
patzt     
zagst     
flaeze     
falz     
pelz     
saetze     
tzbfg     
platz     
balze     
zappel     
blz     
taz     
eszett     
fetzte     
zazas     
fezes     
gezagt     
zeta     
satz     
spelze     
zapfst     
spelze     
zagt     
patzte     
salz     
metze     
pelzes     
zelt     
feze     
gaze     
falze     
setz     
zappt     
absetz     
salzes     
satzes     
