abgabe     
gabel     
lage     
gelde     
gelbes     
stalag     
balges     
gags     
plagt     
gpl     
gaffe     
sag     
begast     
gtpase     
saegst     
lgs     
gabelt     
getagt     
plage     
gesagt     
begebt     
geste     
gasas     
segel     
gaemse     
etage     
tag     
gebebt     
gatte     
gb     
tagte     
gelege     
lege     
balg     
gaffst     
besagt     
mag     
gelds     
gelte     
gema     
gaelte     
gaffel     
talg     
belag     
legats     
legtet     
geld     
gelebt     
gelb     
balge     
