queich     
quarks     
quaste     
mysql     
quizzt     
iq     
quasar     
quaelt     
piquet     
equin     
banque     
qual     
quakst     
quaekt     
quo     
quiz     
quaden     
qumran     
quelle     
compaq     
quill     
quorum     
quaken     
faq     
quoren     
quitte     
quart     
irq     
aquin     
qualle     
quark     
quai     
qm     
quade     
queen     
quasi     
vidocq     
quota     
quieke     
quakte     
quasts     
quert     
quasi     
equine     
quarte     
quere     
quollt     
faq     
quecke     
qualmt     
