statt     
pappst     
tapas     
tapst     
tat     
asta     
staat     
spasst     
patts     
asst     
patt     
at     
tatst     
passat     
papst     
ast     
tappt     
sasst     
passt     
tappst     
ptt     
astas     
pappt     
pasta     
spats     
asta     
spat     
patts     
staats     
pasta     
saat     
satt     
statt     
satt     
pappt     
passt     
spat     
tat     
papst     
passat     
tapst     
at     
tatst     
spats     
spasst     
saat     
staat     
tapas     
asst     
tappst     
