jaffa     
maja     
sejms     
jade     
jazz     
juckte     
jambus     
jucke     
jaulst     
fdj     
jacas     
jalta     
jaete     
jubelt     
jagtet     
jedem     
jamme     
juchte     
jul     
sdaj     
juchzt     
abuja     
sejm     
judas     
just     
jagd     
jaulte     
bpjm     
james     
katjas     
jede     
juckte     
jak     
jambus     
abujas     
kajaks     
jauche     
amazja     
jeckem     
jahwes     
juete     
juwel     
juda     
juchhu     
jemgum     
jupps     
jaehes     
katja     
tja     
jet     
