zells     
satze     
metzle     
pfalz     
lefze     
aetzt     
faezes     
setzte     
zapf     
zaza     
gesetz     
salzte     
eszett     
zagt     
platze     
platz     
petzt     
etzels     
balzt     
fetzte     
fez     
gez     
latz     
spelze     
zeltet     
zappst     
petzte     
zelle     
stelzt     
plazet     
zdf     
plz     
setz     
zagtet     
balz     
absetz     
blz     
zeltes     
pelz     
gaze     
besatz     
saetze     
setze     
zapf     
platzt     
zappel     
fetzt     
fetze     
patzt     
aetze     
