hextet     
juxe     
calyx     
hexe     
sexual     
sexus     
sussex     
boxest     
exakt     
xhosa     
texel     
kux     
hext     
faxes     
box     
exeget     
exogam     
datex     
botox     
textet     
faxtet     
gefaxt     
btx     
podex     
xylol     
haxe     
juxte     
boxt     
texte     
tex     
zufaxt     
pax     
xml     
metaxa     
xylols     
sex     
phlox     
efflux     
excel     
aexte     
xylols     
lex     
laxest     
boxest     
boxte     
text     
boxtet     
texts     
alex     
faxt     
