kessel     
kaemt     
kaff     
kette     
kaemme     
klages     
kelle     
mekka     
skalps     
akp     
welkte     
kalbte     
lks     
laseks     
tasks     
akte     
kepple     
kaeme     
kalls     
kappes     
kabel     
takts     
walkt     
ksze     
fkt     
kdf     
skatet     
kamp     
kebab     
kalbst     
ekelt     
skats     
klm     
kabble     
walke     
stalke     
kegels     
kapp     
klapse     
welkst     
kalbe     
ekelte     
kafka     
lake     
walkst     
kalbs     
klemmt     
kaltem     
kg     
kable     
