elde     
assads     
tadelt     
bald     
felds     
paddel     
tdl     
lade     
fadest     
ada     
datp     
pedal     
spd     
dassel     
sadat     
edles     
ade     
led     
dealte     
adels     
feldes     
eddas     
feld     
dtp     
afd     
dsl     
stade     
deale     
eads     
dass     
delle     
dealst     
ddatp     
fadste     
depp     
bad     
tadel     
delft     
sed     
adelt     
edle     
depps     
fades     
fad     
adle     
felde     
dattel     
baelde     
faedle     
des     
