dgtp     
gala     
abgab     
plagt     
gabel     
ag     
gelage     
gel     
laegt     
fdgb     
balge     
pagat     
balgs     
segel     
legate     
gelegt     
belegs     
gt     
segge     
pegel     
gambe     
gesaet     
gams     
gates     
tagst     
sagt     
betagt     
gebets     
mpeg     
lgpl     
abgebt     
fegte     
egge     
agfas     
gamet     
gelabt     
tag     
mg     
gelass     
gesagt     
gema     
lpg     
gtpase     
alge     
belegt     
apg     
gelees     
bgb     
gelle     
gambas     
