rockst     
filtre     
rambos     
eifers     
ruckle     
prater     
borans     
europa     
doerrt     
unklar     
notare     
rubble     
pieper     
obfrau     
rah     
ehrlos     
person     
ernst     
radios     
zocker     
aber     
crews     
dringe     
morgen     
gurus     
zehrt     
cremte     
probt     
rauere     
cremes     
dummer     
wringt     
rheine     
conrad     
gbr     
moral     
harzen     
uruker     
wykern     
stress     
nerzes     
warb     
lehrte     
corpus     
birmas     
togoer     
geirrt     
kondor     
gros     
crawls     
