guckt     
duzt     
zuzle     
teufel     
bumse     
usb     
hauses     
kautet     
gaube     
kulm     
flug     
uss     
lueg     
usta     
passau     
betuel     
guthat     
uedems     
huefte     
blaeut     
abtut     
fussle     
paukte     
muellt     
absude     
abbaue     
taucht     
sulla     
dusch     
kuehl     
kupees     
fluge     
behaue     
kummet     
lukas     
kubas     
buecke     
klug     
baeume     
muecke     
laugks     
zuwehe     
umgehe     
laeuft     
mulchs     
zugute     
heult     
faust     
saeuft     
hauche     
