lallte     
pellte     
seele     
ettals     
esels     
salsa     
latte     
laeset     
altast     
allee     
laeset     
lasst     
spalte     
aaltet     
palea     
platte     
alt     
stellt     
saals     
apple     
platt     
elsass     
tepale     
lasset     
elspes     
palas     
lea     
lat     
seppel     
allele     
lass     
esel     
ettal     
elle     
lalle     
allel     
lassas     
elspe     
pellst     
sattel     
tells     
aalt     
lest     
stetl     
leaste     
staple     
lette     
palast     
plaste     
laesst     
