style     
yak     
bettys     
kellys     
allyl     
ybbs     
dummys     
dubysa     
hedys     
mbyte     
husky     
ladys     
kyma     
gullys     
seyss     
ebay     
schwyz     
eylau     
asyls     
dummy     
kumys     
myzet     
yaks     
gbyte     
byte     
sylt     
beys     
guppy     
kymas     
typhus     
cathy     
hedy     
alkyls     
wyks     
phyla     
sykes     
kayh     
alkyl     
wyk     
skylla     
happy     
alzeys     
babys     
gbytes     
psyche     
lymphe     
gully     
betty     
gbytes     
tbyte     
