spass     
pass     
papas     
passa     
aa     
spas     
sas     
ass     
sap     
papp     
apps     
ps     
sass     
ppp     
passas     
spa     
saps     
passa     
aas     
papa     
app     
papp     
pps     
aas     
apps     
passas     
papas     
sas     
sass     
ppp     
sap     
pps     
spa     
saps     
papa     
ps     
saps     
aa     
papp     
ppp     
app     
spass     
ass     
pass     
pps     
spas     
aas     
pass     
ass     
sas     
