eylaus     
kybele     
alkyle     
betty     
yuccas     
husky     
skylla     
stylte     
alkyl     
kyma     
dummy     
thalys     
phyle     
betty     
dummys     
getypt     
atayal     
system     
hedys     
babys     
kelly     
guppy     
tethys     
yacht     
kbyte     
halys     
sayda     
pleys     
kayhs     
kymas     
cathys     
happy     
beye     
guppys     
papaya     
gbytes     
asyl     
myzels     
skype     
typhus     
myzet     
eyck     
pyjama     
typs     
paypal     
eyck     
kumys     
gabys     
sylt     
beuys     
