efflux     
juxte     
oxyd     
axt     
phloxe     
boxte     
sex     
juxe     
lux     
oxyds     
sexes     
plexus     
kux     
kuxes     
behexe     
xylols     
behext     
boxt     
latex     
axels     
xylole     
zufaxe     
kuxe     
boxte     
oxalat     
laxest     
hexte     
lexem     
telex     
hexest     
kodexe     
axel     
haxe     
lexeme     
box     
dax     
texas     
taxa     
aexte     
expos     
zufaxt     
sexy     
texels     
sexte     
hexe     
bayeux     
codex     
faxte     
texel     
xylol     
