falk     
akw     
kalpak     
taeks     
kaktee     
kaelte     
talk     
kaltem     
kessem     
kaltes     
kegele     
katta     
bake     
melkte     
klamm     
akte     
kampfe     
akp     
alaska     
fakt     
klagte     
azteke     
kabble     
kgbs     
adamek     
akws     
ldks     
kalles     
kallas     
melkst     
ekzem     
kfw     
ekelt     
kb     
kamba     
kampf     
klapp     
lasek     
pakts     
pakt     
ak     
kasel     
teak     
sekte     
kalbs     
tasks     
kgb     
kalbst     
katze     
kalkte     
